<svg xmlns="http://www.w3.org/2000/svg" width="314" height="64" viewBox="0 0 314 64">
    <g fill="none">
        <path fill="#613219" d="M314 18.38l-15.592 22.426L314 63.23h-80.513V18.38H314zM80.513 17.23v44.85H0l14.456-22.424L0 17.23h80.513z"/>
        <path fill="#512C19" d="M80.562 45.23v18l-43.68-18h43.68zm196.555 0l-43.679 18v-18h43.68z"/>
        <path fill="#774125" d="M36.883.23c40.371 2.97 80.576 4.456 120.615 4.456 40.04 0 79.913-1.485 119.62-4.455v45.2c-39.707 2.97-79.58 4.454-119.62 4.454-40.039 0-80.244-1.485-120.615-4.455V.23z"/>
    </g>
</svg>
